Prog3TurnIn/Program3Transcript
couldn't open "transcript": permission denied
# Reading C:/intelFPGA/19.1/modelsim_ase/tcl/vsim/pref.tcl
# Loading project program1sim
# reading C:/intelFPGA/19.1/modelsim_ase/win32aloem/../modelsim.ini
# Loading project prog3
# Compile of top_level.sv was successful.
# Compile of ALU.sv was successful.
# Compile of Ctrl.sv was successful.
# Compile of DataMem.sv was successful.
# Compile of Definitions.sv was successful.
# Compile of design.sv was successful.
# Compile of Immediate_LUT.sv was successful.
# Compile of InstFetch.sv was successful.
# Compile of InstROM.sv was successful.
# Compile of Mux.sv was successful.
# Compile of program2.sv was successful.
# Compile of program3.sv was successful.
# Compile of RegFile.sv was successful.
# Compile of testbench.sv was successful.
# 14 compiles, 0 failed with no errors.
vsim -gui work.decrypt_depad_tb
# vsim -gui work.decrypt_depad_tb 
# Start time: 12:55:12 on Aug 31,2022
# Loading sv_std.std
# Loading work.decrypt_depad_tb
# Loading work.top_level
# Loading work.DataMem
# Loading work.Mux
# Loading work.RegFile
# Loading work.ALU
# Loading work.InstFetch
# Loading work.InstROM
# Loading work.Ctrl
# Loading work.Immediate_LUT
# ** Warning: (vsim-3017) top_level.sv(106): [TFMPC] - Too few port connections. Expected 15, found 11.
#    Time: 0 ps  Iteration: 0  Instance: /decrypt_depad_tb/dut/CTRL File: Ctrl.sv
# ** Warning: (vsim-3722) top_level.sv(106): [TFMPC] - Missing connection for port 'TapSel'.
# ** Warning: (vsim-3722) top_level.sv(106): [TFMPC] - Missing connection for port 'Ack'.
# ** Warning: (vsim-3722) top_level.sv(106): [TFMPC] - Missing connection for port 'ImdVal'.
# ** Warning: (vsim-3722) top_level.sv(106): [TFMPC] - Missing connection for port 'ALU_inst'.
add wave -position insertpoint sim:/decrypt_depad_tb/dut/RF/*
add wave -position insertpoint sim:/decrypt_depad_tb/dut/*
add wave -position insertpoint sim:/decrypt_depad_tb/dut/DM/*
run -all
# run encryption program; original message = 
#           Ajok          
# LFSR_ptrn = 0x60, LFSR_init = 0x01, pre_length: 10
# pt_no =           0
# i=          0, msg_pad=0x20, lfsr=0000001 msg_crypt w/ parity = 0x01
# i=          1, msg_pad=0x20, lfsr=0000010 msg_crypt w/ parity = 0x02
# i=          2, msg_pad=0x20, lfsr=0000100 msg_crypt w/ parity = 0x04
# i=          3, msg_pad=0x20, lfsr=0001000 msg_crypt w/ parity = 0x08
# i=          4, msg_pad=0x20, lfsr=0010000 msg_crypt w/ parity = 0x10
# i=          5, msg_pad=0x20, lfsr=0100000 msg_crypt w/ parity = 0x20
# i=          6, msg_pad=0x20, lfsr=1000001 msg_crypt w/ parity = 0x41
# i=          7, msg_pad=0x20, lfsr=0000011 msg_crypt w/ parity = 0x03
# i=          8, msg_pad=0x20, lfsr=0000110 msg_crypt w/ parity = 0x06
# i=          9, msg_pad=0x20, lfsr=0001100 msg_crypt w/ parity = 0x0c
# i=         10, msg_pad=0x20, lfsr=0011000 msg_crypt w/ parity = 0x18
# i=         11, msg_pad=0x20, lfsr=0110000 msg_crypt w/ parity = 0x30
# i=         12, msg_pad=0x20, lfsr=1100001 msg_crypt w/ parity = 0x61
# i=         13, msg_pad=0x20, lfsr=1000010 msg_crypt w/ parity = 0x42
# i=         14, msg_pad=0x20, lfsr=0000101 msg_crypt w/ parity = 0x05
# i=         15, msg_pad=0x20, lfsr=0001010 msg_crypt w/ parity = 0x0a
# i=         16, msg_pad=0x20, lfsr=0010100 msg_crypt w/ parity = 0x14
# i=         17, msg_pad=0x20, lfsr=0101000 msg_crypt w/ parity = 0x28
# i=         18, msg_pad=0x20, lfsr=1010001 msg_crypt w/ parity = 0x51
# i=         19, msg_pad=0x20, lfsr=0100011 msg_crypt w/ parity = 0x23
# i=         20, msg_pad=0x41, lfsr=1000111 msg_crypt w/ parity = 0x66
# i=         21, msg_pad=0x6a, lfsr=0001111 msg_crypt w/ parity = 0x45
# i=         22, msg_pad=0x6f, lfsr=0011110 msg_crypt w/ parity = 0x51
# i=         23, msg_pad=0x6b, lfsr=0111100 msg_crypt w/ parity = 0x77
# i=         24, msg_pad=0x20, lfsr=1111001 msg_crypt w/ parity = 0x79
# i=         25, msg_pad=0x20, lfsr=1110010 msg_crypt w/ parity = 0x72
# i=         26, msg_pad=0x20, lfsr=1100100 msg_crypt w/ parity = 0x64
# i=         27, msg_pad=0x20, lfsr=1001000 msg_crypt w/ parity = 0x48
# i=         28, msg_pad=0x20, lfsr=0010001 msg_crypt w/ parity = 0x11
# i=         29, msg_pad=0x20, lfsr=0100010 msg_crypt w/ parity = 0x22
# i=         30, msg_pad=0x20, lfsr=1000101 msg_crypt w/ parity = 0x45
# i=         31, msg_pad=0x20, lfsr=0001011 msg_crypt w/ parity = 0x0b
# i=         32, msg_pad=0x20, lfsr=0010110 msg_crypt w/ parity = 0x16
# i=         33, msg_pad=0x20, lfsr=0101100 msg_crypt w/ parity = 0x2c
# i=         34, msg_pad=0x20, lfsr=1011001 msg_crypt w/ parity = 0x59
# i=         35, msg_pad=0x20, lfsr=0110011 msg_crypt w/ parity = 0x33
# i=         36, msg_pad=0x20, lfsr=1100111 msg_crypt w/ parity = 0x67
# i=         37, msg_pad=0x20, lfsr=1001110 msg_crypt w/ parity = 0x4e
# i=         38, msg_pad=0x20, lfsr=0011101 msg_crypt w/ parity = 0x1d
# i=         39, msg_pad=0x20, lfsr=0111010 msg_crypt w/ parity = 0x3a
# i=         40, msg_pad=0x20, lfsr=1110101 msg_crypt w/ parity = 0x75
# i=         41, msg_pad=0x20, lfsr=1101010 msg_crypt w/ parity = 0x6a
# i=         42, msg_pad=0x20, lfsr=1010100 msg_crypt w/ parity = 0x54
# i=         43, msg_pad=0x20, lfsr=0101001 msg_crypt w/ parity = 0x29
# i=         44, msg_pad=0x20, lfsr=1010011 msg_crypt w/ parity = 0x53
# i=         45, msg_pad=0x20, lfsr=0100111 msg_crypt w/ parity = 0x27
# i=         46, msg_pad=0x20, lfsr=1001111 msg_crypt w/ parity = 0x4f
# i=         47, msg_pad=0x20, lfsr=0011111 msg_crypt w/ parity = 0x1f
# i=         48, msg_pad=0x20, lfsr=0111110 msg_crypt w/ parity = 0x3e
# i=         49, msg_pad=0x20, lfsr=1111101 msg_crypt w/ parity = 0x7d
# i=         50, msg_pad=0x20, lfsr=1111010 msg_crypt w/ parity = 0x7a
# i=         51, msg_pad=0x20, lfsr=1110100 msg_crypt w/ parity = 0x74
# i=         52, msg_pad=0x20, lfsr=1101000 msg_crypt w/ parity = 0x68
# i=         53, msg_pad=0x20, lfsr=1010000 msg_crypt w/ parity = 0x50
# i=         54, msg_pad=0x20, lfsr=0100001 msg_crypt w/ parity = 0x21
# i=         55, msg_pad=0x20, lfsr=1000011 msg_crypt w/ parity = 0x43
# i=         56, msg_pad=0x20, lfsr=0000111 msg_crypt w/ parity = 0x07
# i=         57, msg_pad=0x20, lfsr=0001110 msg_crypt w/ parity = 0x0e
# i=         58, msg_pad=0x20, lfsr=0011100 msg_crypt w/ parity = 0x1c
# i=         59, msg_pad=0x20, lfsr=0111000 msg_crypt w/ parity = 0x38
# i=         60, msg_pad=0x20, lfsr=1110001 msg_crypt w/ parity = 0x71
# i=         61, msg_pad=0x20, lfsr=1100010 msg_crypt w/ parity = 0x62
# i=         62, msg_pad=0x20, lfsr=1000100 msg_crypt w/ parity = 0x44
# i=         63, msg_pad=0x20, lfsr=0001001 msg_crypt w/ parity = 0x09
# encrypted string =  
# !"$(0@a#&,8PÅb%*4HqCÜeqóôíÑh1Be+6LySán=ZïätIsGo?^ùöîàpAc'.<XëÇd)
# 
# 
# program 3:
#           0 bench msg: A 41 dut msg: 21
#           1 bench msg: j 6a dut msg: 4a
#           2 bench msg: o 6f dut msg: 4f
#           3 bench msg: k 6b dut msg: 4b
#           4 bench msg:   20 dut msg: 00
#           5 bench msg:   20 dut msg: 00
#           6 bench msg:   20 dut msg: 00
#           7 bench msg:   20 dut msg: 00
#           8 bench msg:   20 dut msg: 00
#           9 bench msg:   20 dut msg: 00
#          10 bench msg:   20 dut msg: 00
#          11 bench msg:   20 dut msg: 00
#          12 bench msg:   20 dut msg: 00
#          13 bench msg:   20 dut msg: 00
#          14 bench msg:   20 dut msg: 00
#          15 bench msg:   20 dut msg: 00
#          16 bench msg:   20 dut msg: 00
#          17 bench msg:   20 dut msg: 00
#          18 bench msg:   20 dut msg: 00
#          19 bench msg:   20 dut msg: 00
#          20 bench msg:   20 dut msg: 00
#          21 bench msg:   20 dut msg: 00
#          22 bench msg:   20 dut msg: 00
#          23 bench msg:   20 dut msg: 00
#          24 bench msg:   20 dut msg: 00
#          25 bench msg:   20 dut msg: 00
#          26 bench msg:   20 dut msg: 00
#          27 bench msg:   20 dut msg: 00
#          28 bench msg:   20 dut msg: 00
#          29 bench msg:   20 dut msg: 00
#          30 bench msg:   20 dut msg: 00
#          31 bench msg:   20 dut msg: 00
#          32 bench msg:   20 dut msg: 00
#          33 bench msg:   20 dut msg: 00
#          34 bench msg:   20 dut msg: 00
#          35 bench msg:   20 dut msg: 00
#          36 bench msg:   20 dut msg: 00
#          37 bench msg:   20 dut msg: 00
#          38 bench msg:   20 dut msg: 00
#          39 bench msg:   20 dut msg: 00
#          40 bench msg:   20 dut msg: 00
#          41 bench msg:   20 dut msg: 00
#          42 bench msg:   20 dut msg: 00
#          43 bench msg:   20 dut msg: 00
# score = 44/44
# ** Note: $stop    : C:/Users/nfrie/Desktop/Program3/program3.sv(171)
#    Time: 23615 ns  Iteration: 0  Instance: /decrypt_depad_tb
# Break in Module decrypt_depad_tb at C:/Users/nfrie/Desktop/Program3/program3.sv line 171
