Prog1TurnIn/Program1Transcript
couldn't open "transcript": permission denied
# Reading C:/intelFPGA/19.1/modelsim_ase/tcl/vsim/pref.tcl
# Loading project Decrypt
# reading C:/intelFPGA/19.1/modelsim_ase/win32aloem/../modelsim.ini
# Loading project program1sim
# Compile of top_level.sv was successful.
# Compile of ALU.sv was successful.
# Compile of Ctrl.sv failed with 1 errors.
# Compile of DataMem.sv was successful.
# Compile of Definitions.sv was successful.
# Compile of design.sv was successful.
# Compile of Immediate_LUT.sv was successful.
# Compile of InstFetch.sv was successful.
# Compile of InstROM.sv was successful.
# Compile of Mux.sv was successful.
# Compile of program1_tb1.sv was successful.
# Compile of RegFile.sv was successful.
# Compile of testbench.sv was successful.
# 13 compiles, 1 failed with 1 error.
# Compile of top_level.sv was successful.
# Compile of ALU.sv was successful.
# Compile of Ctrl.sv was successful.
# Compile of DataMem.sv was successful.
# Compile of Definitions.sv was successful.
# Compile of design.sv was successful.
# Compile of Immediate_LUT.sv was successful.
# Compile of InstFetch.sv was successful.
# Compile of InstROM.sv was successful.
# Compile of Mux.sv was successful.
# Compile of program1_tb1.sv was successful.
# Compile of RegFile.sv was successful.
# Compile of testbench.sv was successful.
# 13 compiles, 0 failed with no errors.
vsim -gui work.encrypt_tb
# vsim -gui work.encrypt_tb 
# Start time: 16:47:24 on Aug 30,2022
# Loading sv_std.std
# Loading work.encrypt_tb
# Loading work.top_level
# Loading work.DataMem
# Loading work.Mux
# Loading work.RegFile
# Loading work.ALU
# Loading work.InstFetch
# Loading work.InstROM
# Loading work.Ctrl
# Loading work.Immediate_LUT
# ** Warning: (vsim-3017) C:/Users/nfrie/Desktop/PROG1 SIM/top_level.sv(106): [TFMPC] - Too few port connections. Expected 15, found 11.
#    Time: 0 ps  Iteration: 0  Instance: /encrypt_tb/dut/CTRL File: C:/Users/nfrie/Desktop/PROG1 SIM/Ctrl.sv
# ** Warning: (vsim-3722) C:/Users/nfrie/Desktop/PROG1 SIM/top_level.sv(106): [TFMPC] - Missing connection for port 'TapSel'.
# ** Warning: (vsim-3722) C:/Users/nfrie/Desktop/PROG1 SIM/top_level.sv(106): [TFMPC] - Missing connection for port 'Ack'.
# ** Warning: (vsim-3722) C:/Users/nfrie/Desktop/PROG1 SIM/top_level.sv(106): [TFMPC] - Missing connection for port 'ImdVal'.
# ** Warning: (vsim-3722) C:/Users/nfrie/Desktop/PROG1 SIM/top_level.sv(106): [TFMPC] - Missing connection for port 'ALU_inst'.
add wave -position insertpoint sim:/encrypt_tb/dut/*
add wave -position insertpoint sim:/encrypt_tb/dut/RF/*
run -all
# run encryption program; original message = 
# Mr. Watson, come here. I want to see you.
# pt_no =  0
# LFSR_ptrn = 0x60, LFSR_init = 0x01
# i=          0, msg_pad=0x20, lfsr=00000001 msg_crypt w/ parity = 0x01
# i=          1, msg_pad=0x20, lfsr=00000010 msg_crypt w/ parity = 0x02
# i=          2, msg_pad=0x20, lfsr=00000100 msg_crypt w/ parity = 0x04
# i=          3, msg_pad=0x20, lfsr=00001000 msg_crypt w/ parity = 0x08
# i=          4, msg_pad=0x20, lfsr=00010000 msg_crypt w/ parity = 0x10
# i=          5, msg_pad=0x20, lfsr=00100000 msg_crypt w/ parity = 0x20
# i=          6, msg_pad=0x20, lfsr=01000001 msg_crypt w/ parity = 0x41
# i=          7, msg_pad=0x20, lfsr=00000011 msg_crypt w/ parity = 0x03
# i=          8, msg_pad=0x20, lfsr=00000110 msg_crypt w/ parity = 0x06
# i=          9, msg_pad=0x20, lfsr=00001100 msg_crypt w/ parity = 0x0c
# i=         10, msg_pad=0x4d, lfsr=00011000 msg_crypt w/ parity = 0x35
# i=         11, msg_pad=0x72, lfsr=00110000 msg_crypt w/ parity = 0x62
# i=         12, msg_pad=0x2e, lfsr=01100001 msg_crypt w/ parity = 0x6f
# i=         13, msg_pad=0x20, lfsr=01000010 msg_crypt w/ parity = 0x42
# i=         14, msg_pad=0x57, lfsr=00000101 msg_crypt w/ parity = 0x32
# i=         15, msg_pad=0x61, lfsr=00001010 msg_crypt w/ parity = 0x4b
# i=         16, msg_pad=0x74, lfsr=00010100 msg_crypt w/ parity = 0x40
# i=         17, msg_pad=0x73, lfsr=00101000 msg_crypt w/ parity = 0x7b
# i=         18, msg_pad=0x6f, lfsr=01010001 msg_crypt w/ parity = 0x1e
# i=         19, msg_pad=0x6e, lfsr=00100011 msg_crypt w/ parity = 0x6d
# i=         20, msg_pad=0x2c, lfsr=01000111 msg_crypt w/ parity = 0x4b
# i=         21, msg_pad=0x20, lfsr=00001111 msg_crypt w/ parity = 0x0f
# i=         22, msg_pad=0x63, lfsr=00011110 msg_crypt w/ parity = 0x5d
# i=         23, msg_pad=0x6f, lfsr=00111100 msg_crypt w/ parity = 0x73
# i=         24, msg_pad=0x6d, lfsr=01111001 msg_crypt w/ parity = 0x34
# i=         25, msg_pad=0x65, lfsr=01110010 msg_crypt w/ parity = 0x37
# i=         26, msg_pad=0x20, lfsr=01100100 msg_crypt w/ parity = 0x64
# i=         27, msg_pad=0x68, lfsr=01001000 msg_crypt w/ parity = 0x00
# i=         28, msg_pad=0x65, lfsr=00010001 msg_crypt w/ parity = 0x54
# i=         29, msg_pad=0x72, lfsr=00100010 msg_crypt w/ parity = 0x70
# i=         30, msg_pad=0x65, lfsr=01000101 msg_crypt w/ parity = 0x00
# i=         31, msg_pad=0x2e, lfsr=00001011 msg_crypt w/ parity = 0x05
# i=         32, msg_pad=0x20, lfsr=00010110 msg_crypt w/ parity = 0x16
# i=         33, msg_pad=0x49, lfsr=00101100 msg_crypt w/ parity = 0x05
# i=         34, msg_pad=0x20, lfsr=01011001 msg_crypt w/ parity = 0x59
# i=         35, msg_pad=0x77, lfsr=00110011 msg_crypt w/ parity = 0x64
# i=         36, msg_pad=0x61, lfsr=01100111 msg_crypt w/ parity = 0x26
# i=         37, msg_pad=0x6e, lfsr=01001110 msg_crypt w/ parity = 0x00
# i=         38, msg_pad=0x74, lfsr=00011101 msg_crypt w/ parity = 0x49
# i=         39, msg_pad=0x20, lfsr=00111010 msg_crypt w/ parity = 0x3a
# i=         40, msg_pad=0x74, lfsr=01110101 msg_crypt w/ parity = 0x21
# i=         41, msg_pad=0x6f, lfsr=01101010 msg_crypt w/ parity = 0x25
# i=         42, msg_pad=0x20, lfsr=01010100 msg_crypt w/ parity = 0x54
# i=         43, msg_pad=0x73, lfsr=00101001 msg_crypt w/ parity = 0x7a
# i=         44, msg_pad=0x65, lfsr=01010011 msg_crypt w/ parity = 0x16
# i=         45, msg_pad=0x65, lfsr=00100111 msg_crypt w/ parity = 0x62
# i=         46, msg_pad=0x20, lfsr=01001111 msg_crypt w/ parity = 0x4f
# i=         47, msg_pad=0x79, lfsr=00011111 msg_crypt w/ parity = 0x46
# i=         48, msg_pad=0x6f, lfsr=00111110 msg_crypt w/ parity = 0x71
# i=         49, msg_pad=0x75, lfsr=01111101 msg_crypt w/ parity = 0x28
# i=         50, msg_pad=0x2e, lfsr=01111010 msg_crypt w/ parity = 0x74
# i=         51, msg_pad=0x20, lfsr=01110100 msg_crypt w/ parity = 0x74
# i=         52, msg_pad=0x20, lfsr=01101000 msg_crypt w/ parity = 0x68
# i=         53, msg_pad=0x20, lfsr=01010000 msg_crypt w/ parity = 0x50
# i=         54, msg_pad=0x20, lfsr=00100001 msg_crypt w/ parity = 0x21
# i=         55, msg_pad=0x20, lfsr=01000011 msg_crypt w/ parity = 0x43
# i=         56, msg_pad=0x20, lfsr=00000111 msg_crypt w/ parity = 0x07
# i=         57, msg_pad=0x20, lfsr=00001110 msg_crypt w/ parity = 0x0e
# i=         58, msg_pad=0x20, lfsr=00011100 msg_crypt w/ parity = 0x1c
# i=         59, msg_pad=0x20, lfsr=00111000 msg_crypt w/ parity = 0x38
# i=         60, msg_pad=0x20, lfsr=01110001 msg_crypt w/ parity = 0x71
# i=         61, msg_pad=0x20, lfsr=01100010 msg_crypt w/ parity = 0x62
# i=         62, msg_pad=0x20, lfsr=01000100 msg_crypt w/ parity = 0x44
# i=         63, msg_pad=0x20, lfsr=00001001 msg_crypt w/ parity = 0x09
# encrypted string =  
# !"$(0@a#&,UÇèbRk`õ>çk/}ìTWÑ tê %6%yÑF iZAEtö6ÇofëHîîàpAc'.<XëÇd)
# 
# R0 =  15
# R1 =   0
# R2 =   0
# 
# program 1:
#           0 bench msg: ! 01 dut msg: 2c  OOPS!
#           1 bench msg: " 02 dut msg: 52  OOPS!
#           2 bench msg: $ 04 dut msg: 0e  OOPS!
#           3 bench msg: ( 08 dut msg: 00  OOPS!
#           4 bench msg: 0 10 dut msg: 37  OOPS!
#           5 bench msg: @ 20 dut msg: 41  OOPS!
#           6 bench msg: a 41 dut msg: 54  OOPS!
#           7 bench msg: # 03 dut msg: 53  OOPS!
#           8 bench msg: & 06 dut msg: 4f  OOPS!
#           9 bench msg: , 0c dut msg: 4e  OOPS!
#          10 bench msg: U 35 dut msg: 0c  OOPS!
#          11 bench msg: Ç 62 dut msg: 00  OOPS!
#          12 bench msg: è 6f dut msg: 43  OOPS!
#          13 bench msg: b 42 dut msg: 4f  OOPS!
#          14 bench msg: R 32 dut msg: 4d  OOPS!
#          15 bench msg: k 4b dut msg: 45  OOPS!
#          16 bench msg: ` 40 dut msg: 00  OOPS!
#          17 bench msg: õ 7b dut msg: 48  OOPS!
#          18 bench msg: > 1e dut msg: 45  OOPS!
#          19 bench msg: ç 6d dut msg: 52  OOPS!
#          20 bench msg: k 4b dut msg: 45  OOPS!
#          21 bench msg: / 0f dut msg: 0e  OOPS!
#          22 bench msg: } 5d dut msg: 00  OOPS!
#          23 bench msg: ì 73 dut msg: 29  OOPS!
#          24 bench msg: T 34 dut msg: 00  OOPS!
#          25 bench msg: W 37 dut msg: 57  OOPS!
#          26 bench msg: Ñ 64 dut msg: 41  OOPS!
#          27 bench msg:   00 dut msg: 4e  OOPS!
#          28 bench msg: t 54 dut msg: 54
#          29 bench msg: ê 70 dut msg: 00  OOPS!
#          30 bench msg:   00 dut msg: 54  OOPS!
#          31 bench msg: % 05 dut msg: 4f  OOPS!
#          32 bench msg: 6 16 dut msg: 00  OOPS!
#          33 bench msg: % 05 dut msg: 53  OOPS!
#          34 bench msg: y 59 dut msg: 45  OOPS!
#          35 bench msg: Ñ 64 dut msg: 45  OOPS!
#          36 bench msg: F 26 dut msg: 00  OOPS!
#          37 bench msg:   00 dut msg: 59  OOPS!
#          38 bench msg: i 49 dut msg: 4f  OOPS!
#          39 bench msg: Z 3a dut msg: 55  OOPS!
#          40 bench msg: A 21 dut msg: 0e  OOPS!
#          41 bench msg: E 25 dut msg: 00  OOPS!
#          42 bench msg: t 54 dut msg: 00  OOPS!
#          43 bench msg: ö 7a dut msg: 00  OOPS!
#          44 bench msg: 6 16 dut msg: 00  OOPS!
#          45 bench msg: Ç 62 dut msg: 00  OOPS!
#          46 bench msg: o 4f dut msg: 00  OOPS!
#          47 bench msg: f 46 dut msg: 00  OOPS!
#          48 bench msg: ë 71 dut msg: 00  OOPS!
#          49 bench msg: H 28 dut msg: 00  OOPS!
#          50 bench msg: î 74 dut msg: 00  OOPS!
#          51 bench msg: î 74 dut msg: 00  OOPS!
#          52 bench msg: à 68 dut msg: 00  OOPS!
#          53 bench msg: p 50 dut msg: 00  OOPS!
#          54 bench msg: A 21 dut msg: xx  OOPS!
#          55 bench msg: c 43 dut msg: xx  OOPS!
#          56 bench msg: ' 07 dut msg: xx  OOPS!
#          57 bench msg: . 0e dut msg: xx  OOPS!
#          58 bench msg: < 1c dut msg: xx  OOPS!
#          59 bench msg: X 38 dut msg: xx  OOPS!
#          60 bench msg: ë 71 dut msg: xx  OOPS!
#          61 bench msg: Ç 62 dut msg: xx  OOPS!
#          62 bench msg: d 44 dut msg: xx  OOPS!
#          63 bench msg: ) 09 dut msg: xx  OOPS!
# score =           1/64
# ** Note: $stop    : C:/Users/nfrie/Desktop/PROG1 SIM/program1_tb1.sv(153)
#    Time: 16165 ns  Iteration: 0  Instance: /encrypt_tb
# Break in Module encrypt_tb at C:/Users/nfrie/Desktop/PROG1 SIM/program1_tb1.sv line 153
quit -sim
# End time: 16:49:05 on Aug 30,2022, Elapsed time: 0:01:41
# Errors: 0, Warnings: 5
restart -f
# No Design Loaded!
vsim -gui work.encrypt_tb
# vsim -gui work.encrypt_tb 
# Start time: 16:49:55 on Aug 30,2022
# Loading sv_std.std
# Loading work.encrypt_tb
# Loading work.top_level
# Loading work.DataMem
# Loading work.Mux
# Loading work.RegFile
# Loading work.ALU
# Loading work.InstFetch
# Loading work.InstROM
# Loading work.Ctrl
# Loading work.Immediate_LUT
# ** Warning: (vsim-3017) C:/Users/nfrie/Desktop/PROG1 SIM/top_level.sv(106): [TFMPC] - Too few port connections. Expected 15, found 11.
#    Time: 0 ps  Iteration: 0  Instance: /encrypt_tb/dut/CTRL File: C:/Users/nfrie/Desktop/PROG1 SIM/Ctrl.sv
# ** Warning: (vsim-3722) C:/Users/nfrie/Desktop/PROG1 SIM/top_level.sv(106): [TFMPC] - Missing connection for port 'TapSel'.
# ** Warning: (vsim-3722) C:/Users/nfrie/Desktop/PROG1 SIM/top_level.sv(106): [TFMPC] - Missing connection for port 'Ack'.
# ** Warning: (vsim-3722) C:/Users/nfrie/Desktop/PROG1 SIM/top_level.sv(106): [TFMPC] - Missing connection for port 'ImdVal'.
# ** Warning: (vsim-3722) C:/Users/nfrie/Desktop/PROG1 SIM/top_level.sv(106): [TFMPC] - Missing connection for port 'ALU_inst'.
add wave -position insertpoint sim:/encrypt_tb/dut/*
add wave -position insertpoint sim:/encrypt_tb/dut/RF/*
add wave -position insertpoint sim:/encrypt_tb/dut/DM/*
run -all
# run encryption program; original message = 
# Mr. Watson, come here. I want to see you.
# pt_no =  0
# LFSR_ptrn = 0x60, LFSR_init = 0x01
# i=          0, msg_pad=0x20, lfsr=00000001 msg_crypt w/ parity = 0x01
# i=          1, msg_pad=0x20, lfsr=00000010 msg_crypt w/ parity = 0x02
# i=          2, msg_pad=0x20, lfsr=00000100 msg_crypt w/ parity = 0x04
# i=          3, msg_pad=0x20, lfsr=00001000 msg_crypt w/ parity = 0x08
# i=          4, msg_pad=0x20, lfsr=00010000 msg_crypt w/ parity = 0x10
# i=          5, msg_pad=0x20, lfsr=00100000 msg_crypt w/ parity = 0x20
# i=          6, msg_pad=0x20, lfsr=01000001 msg_crypt w/ parity = 0x41
# i=          7, msg_pad=0x20, lfsr=00000011 msg_crypt w/ parity = 0x03
# i=          8, msg_pad=0x20, lfsr=00000110 msg_crypt w/ parity = 0x06
# i=          9, msg_pad=0x20, lfsr=00001100 msg_crypt w/ parity = 0x0c
# i=         10, msg_pad=0x4d, lfsr=00011000 msg_crypt w/ parity = 0x35
# i=         11, msg_pad=0x72, lfsr=00110000 msg_crypt w/ parity = 0x62
# i=         12, msg_pad=0x2e, lfsr=01100001 msg_crypt w/ parity = 0x6f
# i=         13, msg_pad=0x20, lfsr=01000010 msg_crypt w/ parity = 0x42
# i=         14, msg_pad=0x57, lfsr=00000101 msg_crypt w/ parity = 0x32
# i=         15, msg_pad=0x61, lfsr=00001010 msg_crypt w/ parity = 0x4b
# i=         16, msg_pad=0x74, lfsr=00010100 msg_crypt w/ parity = 0x40
# i=         17, msg_pad=0x73, lfsr=00101000 msg_crypt w/ parity = 0x7b
# i=         18, msg_pad=0x6f, lfsr=01010001 msg_crypt w/ parity = 0x1e
# i=         19, msg_pad=0x6e, lfsr=00100011 msg_crypt w/ parity = 0x6d
# i=         20, msg_pad=0x2c, lfsr=01000111 msg_crypt w/ parity = 0x4b
# i=         21, msg_pad=0x20, lfsr=00001111 msg_crypt w/ parity = 0x0f
# i=         22, msg_pad=0x63, lfsr=00011110 msg_crypt w/ parity = 0x5d
# i=         23, msg_pad=0x6f, lfsr=00111100 msg_crypt w/ parity = 0x73
# i=         24, msg_pad=0x6d, lfsr=01111001 msg_crypt w/ parity = 0x34
# i=         25, msg_pad=0x65, lfsr=01110010 msg_crypt w/ parity = 0x37
# i=         26, msg_pad=0x20, lfsr=01100100 msg_crypt w/ parity = 0x64
# i=         27, msg_pad=0x68, lfsr=01001000 msg_crypt w/ parity = 0x00
# i=         28, msg_pad=0x65, lfsr=00010001 msg_crypt w/ parity = 0x54
# i=         29, msg_pad=0x72, lfsr=00100010 msg_crypt w/ parity = 0x70
# i=         30, msg_pad=0x65, lfsr=01000101 msg_crypt w/ parity = 0x00
# i=         31, msg_pad=0x2e, lfsr=00001011 msg_crypt w/ parity = 0x05
# i=         32, msg_pad=0x20, lfsr=00010110 msg_crypt w/ parity = 0x16
# i=         33, msg_pad=0x49, lfsr=00101100 msg_crypt w/ parity = 0x05
# i=         34, msg_pad=0x20, lfsr=01011001 msg_crypt w/ parity = 0x59
# i=         35, msg_pad=0x77, lfsr=00110011 msg_crypt w/ parity = 0x64
# i=         36, msg_pad=0x61, lfsr=01100111 msg_crypt w/ parity = 0x26
# i=         37, msg_pad=0x6e, lfsr=01001110 msg_crypt w/ parity = 0x00
# i=         38, msg_pad=0x74, lfsr=00011101 msg_crypt w/ parity = 0x49
# i=         39, msg_pad=0x20, lfsr=00111010 msg_crypt w/ parity = 0x3a
# i=         40, msg_pad=0x74, lfsr=01110101 msg_crypt w/ parity = 0x21
# i=         41, msg_pad=0x6f, lfsr=01101010 msg_crypt w/ parity = 0x25
# i=         42, msg_pad=0x20, lfsr=01010100 msg_crypt w/ parity = 0x54
# i=         43, msg_pad=0x73, lfsr=00101001 msg_crypt w/ parity = 0x7a
# i=         44, msg_pad=0x65, lfsr=01010011 msg_crypt w/ parity = 0x16
# i=         45, msg_pad=0x65, lfsr=00100111 msg_crypt w/ parity = 0x62
# i=         46, msg_pad=0x20, lfsr=01001111 msg_crypt w/ parity = 0x4f
# i=         47, msg_pad=0x79, lfsr=00011111 msg_crypt w/ parity = 0x46
# i=         48, msg_pad=0x6f, lfsr=00111110 msg_crypt w/ parity = 0x71
# i=         49, msg_pad=0x75, lfsr=01111101 msg_crypt w/ parity = 0x28
# i=         50, msg_pad=0x2e, lfsr=01111010 msg_crypt w/ parity = 0x74
# i=         51, msg_pad=0x20, lfsr=01110100 msg_crypt w/ parity = 0x74
# i=         52, msg_pad=0x20, lfsr=01101000 msg_crypt w/ parity = 0x68
# i=         53, msg_pad=0x20, lfsr=01010000 msg_crypt w/ parity = 0x50
# i=         54, msg_pad=0x20, lfsr=00100001 msg_crypt w/ parity = 0x21
# i=         55, msg_pad=0x20, lfsr=01000011 msg_crypt w/ parity = 0x43
# i=         56, msg_pad=0x20, lfsr=00000111 msg_crypt w/ parity = 0x07
# i=         57, msg_pad=0x20, lfsr=00001110 msg_crypt w/ parity = 0x0e
# i=         58, msg_pad=0x20, lfsr=00011100 msg_crypt w/ parity = 0x1c
# i=         59, msg_pad=0x20, lfsr=00111000 msg_crypt w/ parity = 0x38
# i=         60, msg_pad=0x20, lfsr=01110001 msg_crypt w/ parity = 0x71
# i=         61, msg_pad=0x20, lfsr=01100010 msg_crypt w/ parity = 0x62
# i=         62, msg_pad=0x20, lfsr=01000100 msg_crypt w/ parity = 0x44
# i=         63, msg_pad=0x20, lfsr=00001001 msg_crypt w/ parity = 0x09
# encrypted string =  
# !"$(0@a#&,UÇèbRk`õ>çk/}ìTWÑ tê %6%yÑF iZAEtö6ÇofëHîîàpAc'.<XëÇd)
# 
# R0 =   0
# R1 =   0
# R2 =   0
# 
# program 1:
#           0 bench msg: ! 01 dut msg: 01
#           1 bench msg: " 02 dut msg: 02
#           2 bench msg: $ 04 dut msg: 04
#           3 bench msg: ( 08 dut msg: 08
#           4 bench msg: 0 10 dut msg: 10
#           5 bench msg: @ 20 dut msg: 20
#           6 bench msg: a 41 dut msg: 41
#           7 bench msg: # 03 dut msg: 03
#           8 bench msg: & 06 dut msg: 06
#           9 bench msg: , 0c dut msg: 0c
#          10 bench msg: U 35 dut msg: 35
#          11 bench msg: Ç 62 dut msg: 62
#          12 bench msg: è 6f dut msg: 6f
#          13 bench msg: b 42 dut msg: 42
#          14 bench msg: R 32 dut msg: 32
#          15 bench msg: k 4b dut msg: 4b
#          16 bench msg: ` 40 dut msg: 40
#          17 bench msg: õ 7b dut msg: 7b
#          18 bench msg: > 1e dut msg: 1e
#          19 bench msg: ç 6d dut msg: 6d
#          20 bench msg: k 4b dut msg: 4b
#          21 bench msg: / 0f dut msg: 0f
#          22 bench msg: } 5d dut msg: 5d
#          23 bench msg: ì 73 dut msg: 73
#          24 bench msg: T 34 dut msg: 34
#          25 bench msg: W 37 dut msg: 37
#          26 bench msg: Ñ 64 dut msg: 64
#          27 bench msg:   00 dut msg: 00
#          28 bench msg: t 54 dut msg: 54
#          29 bench msg: ê 70 dut msg: 70
#          30 bench msg:   00 dut msg: 00
#          31 bench msg: % 05 dut msg: 05
#          32 bench msg: 6 16 dut msg: 16
#          33 bench msg: % 05 dut msg: 05
#          34 bench msg: y 59 dut msg: 59
#          35 bench msg: Ñ 64 dut msg: 64
#          36 bench msg: F 26 dut msg: 26
#          37 bench msg:   00 dut msg: 00
#          38 bench msg: i 49 dut msg: 49
#          39 bench msg: Z 3a dut msg: 3a
#          40 bench msg: A 21 dut msg: 21
#          41 bench msg: E 25 dut msg: 25
#          42 bench msg: t 54 dut msg: 54
#          43 bench msg: ö 7a dut msg: 7a
#          44 bench msg: 6 16 dut msg: 16
#          45 bench msg: Ç 62 dut msg: 62
#          46 bench msg: o 4f dut msg: 4f
#          47 bench msg: f 46 dut msg: 46
#          48 bench msg: ë 71 dut msg: 71
#          49 bench msg: H 28 dut msg: 28
#          50 bench msg: î 74 dut msg: 74
#          51 bench msg: î 74 dut msg: 74
#          52 bench msg: à 68 dut msg: 68
#          53 bench msg: p 50 dut msg: 50
#          54 bench msg: A 21 dut msg: 21
#          55 bench msg: c 43 dut msg: 43
#          56 bench msg: ' 07 dut msg: 07
#          57 bench msg: . 0e dut msg: 0e
#          58 bench msg: < 1c dut msg: 1c
#          59 bench msg: X 38 dut msg: 38
#          60 bench msg: ë 71 dut msg: 71
#          61 bench msg: Ç 62 dut msg: 62
#          62 bench msg: d 44 dut msg: 44
#          63 bench msg: ) 09 dut msg: 09
# score =          64/64
# ** Note: $stop    : C:/Users/nfrie/Desktop/PROG1 SIM/program1_tb1.sv(153)
#    Time: 18215 ns  Iteration: 0  Instance: /encrypt_tb
# Break in Module encrypt_tb at C:/Users/nfrie/Desktop/PROG1 SIM/program1_tb1.sv line 153
